 ┏━━┓┌───────────────┐
 ┃＼／┃│お問合せありがとうございます。│
 ┗━━┛└───────────────┘

$name1$ $name2$ 様

お問合せ【$SIRIAL$ 】
------------------------------------
お問合せありがとうございます。
このメールはワンダーランドのサーバーからの自動返信メールです。
スタッフが内容を確認してご連絡差上げます。

ありがとうございます。


━━━━━━━━━━━━━━━━━━━━━━━━━━━━━
株式会社ワンダーランド
─────────────────────────────
〒553-0003　大阪府大阪市福島区福島6丁目9番11号
Url:http://www.shimamura-wonderland.co.jp/  
E-mail:info@shimamura-wonderland.co.jp
TEL:06-6451-2519
━━━━━━━━━━━━━━━━━━━━━━━━━━━━━
